{
	"results": [
		{
			"name" : "Hawaian",
			"cheese" : "Yes",
			"ham" : "Yes",
			"pineapple" : "Yes",
			"mushrooms" : "No"

		},
		{
			"name" : "Farmhouse",
			"cheese" : "Yes",
			"ham" : "Yes",
			"pineapple" : "No",
			"mushrooms" : "Yes"
		}
	],
  "sender" : {
  	"first_name" : "Aine",
  	"last_name" : "Poole",
  	"email" : "aine@toruinteractive.com"
  },
  "logo_src" : "http://www.toru.space/logo.png"
}
